…
instacart = 
  instacart %>% 
  as_tibble(instacart)
```

To see the number of aisles, and the aisles the items were most ordered
from:

``` r
instacart %>% 
  count(aisle) %>% 
  arrange(desc(n))
```

    ## # A tibble: 134 × 2
    ##   aisle                           n
    ##   <chr>                       <int>
    ## 1 fresh vegetables           150609
    ## 2 fresh fruits               150473
    ## 3 packaged vegetables fruits  78493
    ## 4 yogurt                      55240
    ## 5 packaged cheese             41699
    ## # … with 129 more rows
…
